memberN,Id,Email,Password,Phone,Address,ParentID,Gender
RABIA BIBI,A18011,A18011@college.pk,1234,0306-2830949,"C-17,EASTERN APPT,GI,BLK 6",1,FEMALE
FATIMA BADAR,A18023,A18023@college.pk,1234,0333-3194273,"AR-21 BLK 10,NEAR SIND BAD,GI",1,FEMALE
RIDA HAMEED,A18031,A18031@college.pk,1234,0300-8093315,"R-2,HINA BANGLOW,BLK 19,GJ",1,FEMALE
MEHWASH SARWAR,A18047,A18047@college.pk,1234,-,"PREM VILLAS,SAFOORA",1,FEMALE
FINANTA RASHID,A18051,A18051@college.pk,1234,0333-3289792,"A7-201 URBAN CASTLE,PHASE 1,BLK 21,FB AREA",1,FEMALE
ISHWA HANIF,A18052,A18052@college.pk,1234,0341-2684183,"A-78,BLK 13,GJ",1,FEMALE
ALINA ALI,A18071,A18071@college.pk,1234,0330-2532954,"PREM VILLAS,SAFOORA",1,FEMALE
MEHAN ISHTIAQ,A18080,A18080@college.pk,1234,0300-9213420,"H NO 573 BLK 1,METROVILLE,GI",1,FEMALE
HUNSA TAJ,A18019,A18019@college.pk,1234,0300-2149802,"R-281,BLK 6,GULSHAN",1,FEMALE
LAIBA ASIF,A18083,A18083@college.pk,1234,0332-3138681,"C-17,SHAHEEN APPT,BLK 13,GI",1,FEMALE
RABYA AHMED,A18085,A18085@college.pk,1234,0300-2471033,"FL#119,SAKINA ARCADE,MAIN UNI RD",1,FEMALE
MASOOMA GUL,A18086,A18086@college.pk,1234,0334-3500581,"R 131,PHASE 3,SULSHAN-E-SHAMIM,FB AREA",1,FEMALE
